1684837985;;;;
#poses;f;isConstant;;
0;2929.67;0;;
2;2929.67;0;;
3;3686.01;0;;
3;3652.09;0;;
4;3463.65;0;;
4;3457.73;0;;
5;3479.96;0;;
5;3481.57;0;;
6;3442.98;0;;
7;3437.07;0;;
7;3435.7;0;;
8;3439.78;0;;
9;3450.66;0;;
9;3445.1;0;;
10;3442.8;0;;
11;3445.68;0;;
12;3444.85;0;;
13;3441.15;0;;
14;3438.12;0;;
15;3434.66;0;;
16;3424.04;0;;
17;3420.81;0;;
18;3425.08;0;;
19;3432.1;0;;
19;3431.9;0;;
20;3417.53;0;;
20;3417.95;0;;
21;3409.37;0;;
21;3409.29;0;;
22;3412.14;0;;
22;3410.61;0;;
23;3405.76;0;;
23;3404.07;0;;
24;3414.05;0;;
24;3413.28;0;;
24;3413.37;0;;
25;3418.7;0;;
25;3418.32;0;;
26;3421.05;0;;
26;3419.28;0;;
26;3418.48;0;;
27;3426.16;0;;
27;3424.48;0;;
28;3423.02;0;;
29;3428.49;0;;
29;3429.6;0;;
30;3429.75;0;;
30;3429.97;0;;
