4941168 40953125 52212805 132826813 293773218 465707962 476654160 478357782 711092900 789363665 825394917 949858249 962937498 977729866 997824443 1048082686 1269600366 1367924898 1456661526 1517672580 1518618607 1608593203 1642758074 1650377554 1686200122 1710437144 1712011535 1976046802 2053359534 2060494919
40953125 52212805 132826813 293773218 465707962 476654160 478357782 711092900 789363665 825394917 949858249 962937498 977729866 997824443 1048082686 1269600366 1367924898 1456661526 1517672580 1518618607 1608593203 1642758074 1650377554 1686200122 1710437144 1712011535 1976046802 2053359534 2060494919
52212805 132826813 293773218 465707962 476654160 478357782 711092900 789363665 825394917 949858249 962937498 977729866 997824443 1048082686 1269600366 1367924898 1456661526 1517672580 1518618607 1608593203 1642758074 1650377554 1686200122 1710437144 1712011535 1976046802 2053359534 2060494919
132826813 293773218 465707962 476654160 478357782 711092900 789363665 825394917 949858249 962937498 977729866 997824443 1048082686 1269600366 1367924898 1456661526 1517672580 1518618607 1608593203 1642758074 1650377554 1686200122 1710437144 1712011535 1976046802 2053359534 2060494919
293773218 465707962 476654160 478357782 711092900 789363665 825394917 949858249 962937498 977729866 997824443 1048082686 1269600366 1367924898 1456661526 1517672580 1518618607 1608593203 1642758074 1650377554 1686200122 1710437144 1712011535 1976046802 2053359534 2060494919
465707962 476654160 478357782 711092900 789363665 825394917 949858249 962937498 977729866 997824443 1048082686 1269600366 1367924898 1456661526 1517672580 1518618607 1608593203 1642758074 1650377554 1686200122 1710437144 1712011535 1976046802 2053359534 2060494919
476654160 478357782 711092900 789363665 825394917 949858249 962937498 977729866 997824443 1048082686 1269600366 1367924898 1456661526 1517672580 1518618607 1608593203 1642758074 1650377554 1686200122 1710437144 1712011535 1976046802 2053359534 2060494919
478357782 711092900 789363665 825394917 949858249 962937498 977729866 997824443 1048082686 1269600366 1367924898 1456661526 1517672580 1518618607 1608593203 1642758074 1650377554 1686200122 1710437144 1712011535 1976046802 2053359534 2060494919
711092900 789363665 825394917 949858249 962937498 977729866 997824443 1048082686 1269600366 1367924898 1456661526 1517672580 1518618607 1608593203 1642758074 1650377554 1686200122 1710437144 1712011535 1976046802 2053359534 2060494919
789363665 825394917 949858249 962937498 977729866 997824443 1048082686 1269600366 1367924898 1456661526 1517672580 1518618607 1608593203 1642758074 1650377554 1686200122 1710437144 1712011535 1976046802 2053359534 2060494919
825394917 949858249 962937498 977729866 997824443 1048082686 1269600366 1367924898 1456661526 1517672580 1518618607 1608593203 1642758074 1650377554 1686200122 1710437144 1712011535 1976046802 2053359534 2060494919
949858249 962937498 977729866 997824443 1048082686 1269600366 1367924898 1456661526 1517672580 1518618607 1608593203 1642758074 1650377554 1686200122 1710437144 1712011535 1976046802 2053359534 2060494919
962937498 977729866 997824443 1048082686 1269600366 1367924898 1456661526 1517672580 1518618607 1608593203 1642758074 1650377554 1686200122 1710437144 1712011535 1976046802 2053359534 2060494919
977729866 997824443 1048082686 1269600366 1367924898 1456661526 1517672580 1518618607 1608593203 1642758074 1650377554 1686200122 1710437144 1712011535 1976046802 2053359534 2060494919
997824443 1048082686 1269600366 1367924898 1456661526 1517672580 1518618607 1608593203 1642758074 1650377554 1686200122 1710437144 1712011535 1976046802 2053359534 2060494919
1048082686 1269600366 1367924898 1456661526 1517672580 1518618607 1608593203 1642758074 1650377554 1686200122 1710437144 1712011535 1976046802 2053359534 2060494919
1269600366 1367924898 1456661526 1517672580 1518618607 1608593203 1642758074 1650377554 1686200122 1710437144 1712011535 1976046802 2053359534 2060494919
1367924898 1456661526 1517672580 1518618607 1608593203 1642758074 1650377554 1686200122 1710437144 1712011535 1976046802 2053359534 2060494919
1456661526 1517672580 1518618607 1608593203 1642758074 1650377554 1686200122 1710437144 1712011535 1976046802 2053359534 2060494919
1517672580 1518618607 1608593203 1642758074 1650377554 1686200122 1710437144 1712011535 1976046802 2053359534 2060494919
1518618607 1608593203 1642758074 1650377554 1686200122 1710437144 1712011535 1976046802 2053359534 2060494919
1608593203 1642758074 1650377554 1686200122 1710437144 1712011535 1976046802 2053359534 2060494919
1642758074 1650377554 1686200122 1710437144 1712011535 1976046802 2053359534 2060494919
1650377554 1686200122 1710437144 1712011535 1976046802 2053359534 2060494919
1686200122 1710437144 1712011535 1976046802 2053359534 2060494919
1710437144 1712011535 1976046802 2053359534 2060494919
1712011535 1976046802 2053359534 2060494919
1976046802 2053359534 2060494919
2053359534 2060494919
